{
  "appPageId" : "803b347d-d35a-43ff-a832-6ce9e16627e5",
  "componentName" : "siteforce:sldsOneColLayout",
  "id" : "6172586d-aece-4e01-9a32-fc31a111019a",
  "label" : "Contact",
  "regions" : [ {
    "components" : [ {
      "componentAttributes" : {
        "richTextValue" : "<!--  ----------------------------------------------------------------------  -->\n<!--  NOTE: Please add the following <FORM> element to your page.             -->\n<!--  ----------------------------------------------------------------------  -->\n\n<form action=\"https://test.salesforce.com/servlet/servlet.WebToLead?encoding=UTF-8\" method=\"POST\">\n\n<input type=hidden name=\"oid\" value=\"00D0w0000008go1\">\n<input type=hidden name=\"retURL\" value=\"https://www.ingenuity.com.au/\">\n\n<!--  ----------------------------------------------------------------------  -->\n<!--  NOTE: These fields are optional debugging elements. Please uncomment    -->\n<!--  these lines if you wish to test in debug mode.                          -->\n<!--  <input type=\"hidden\" name=\"debug\" value=1>                              -->\n<!--  <input type=\"hidden\" name=\"debugEmail\"                                  -->\n<!--  value=\"sam.acharya@ingenuity.com.au.invalid\">                           -->\n<!--  ----------------------------------------------------------------------  -->\n<label class=\"slds-form-element__label\" for=\"first_name\">First Name</label><input  id=\"first_name\" maxlength=\"40\" name=\"first_name\" size=\"20\" type=\"text\" required/><br>\n<label for=\"first_name\">First Name</label><input  id=\"first_name\" maxlength=\"40\" name=\"first_name\" size=\"20\" type=\"text\" required/><br>\n\n<label for=\"last_name\">Last Name</label><input  id=\"last_name\" maxlength=\"80\" name=\"last_name\" size=\"20\" type=\"text\" required/><br>\n\n<label for=\"company\">Company</label><input  id=\"company\" maxlength=\"40\" name=\"company\" size=\"20\" type=\"text\" /><br>\n\n<label for=\"email\">Email</label><input  id=\"email\" maxlength=\"80\" name=\"email\" size=\"20\" type=\"text\" required/><br>\n\n<label for=\"mobile\">Mobile</label><input  id=\"mobile\" maxlength=\"40\" name=\"mobile\" size=\"20\" type=\"text\" /><br>\n\n<label for=\"description\">Description</label><textarea name=\"description\" required></textarea><br>\n<br>\n<input type=\"submit\" name=\"submit\">\n\n</form>"
      },
      "componentName" : "forceCommunity:htmlBlock",
      "id" : "df0beab5-5cda-4b12-916a-a2766d1d401c",
      "renderPriority" : "NEUTRAL",
      "renditionMap" : { },
      "type" : "component"
    } ],
    "id" : "eafea4c5-5c0c-412e-b073-23bb80286b06",
    "regionName" : "header",
    "type" : "region"
  }, {
    "components" : [ {
      "componentAttributes" : {
        "allowAttachments" : true,
        "attachmentLabel" : "Upload File",
        "buttonAlignment" : "center",
        "buttonBgColor" : "",
        "buttonBgHoverColor" : "",
        "buttonBorderColor" : "",
        "buttonMaxWidth" : "",
        "buttonRadius" : 0,
        "buttonTextColor" : "",
        "buttonTextHoverColor" : "",
        "callToAction" : false,
        "callToActionButtonText" : "",
        "callToActionText" : "",
        "callToActionUrl" : "",
        "confirmationSubtext" : "We’ll get back to you soon.",
        "confirmationText" : "Your case was created.",
        "guestQuickActionName" : "Select or configure a global action",
        "headerSubtitle" : "Tell us how we can help.",
        "headerTitle" : "Contact Customer Support",
        "quickActionName" : "NewCommunityCase",
        "requestSummaryText" : "Case summary"
      },
      "componentName" : "forceCommunity:contactSupportForm",
      "id" : "d0b9fd1c-2014-4a10-84b5-1fc175010cdb",
      "renderPriority" : "NEUTRAL",
      "renditionMap" : { },
      "type" : "component"
    } ],
    "id" : "42c3f915-91dc-4507-8058-79402496f495",
    "regionName" : "content",
    "type" : "region"
  }, {
    "id" : "0baec275-7d95-4786-a5fa-fac31373b66b",
    "regionName" : "footer",
    "type" : "region"
  }, {
    "components" : [ {
      "componentAttributes" : {
        "description" : "",
        "metaTags" : "",
        "title" : "Contact"
      },
      "componentName" : "forceCommunity:seoAssistant",
      "id" : "9884deca-5cde-4f97-bd8b-fcfef14a7ea5",
      "renditionMap" : { },
      "type" : "component"
    } ],
    "id" : "455e58e1-cf8e-4edd-b984-f94ab13c538d",
    "regionName" : "sfdcHiddenRegion",
    "type" : "region"
  } ],
  "themeLayoutType" : "Kj2QW7Mn3yQhudeLfnFIlLkMNWbOZh",
  "type" : "view",
  "viewType" : "custom-contact"
}