{
  "appPageId" : "803b347d-d35a-43ff-a832-6ce9e16627e5",
  "componentName" : "siteforce:sldsOneColLayout",
  "id" : "49477ded-bc1b-4bcd-8832-e93ec68f8e93",
  "label" : "File List",
  "regions" : [ {
    "id" : "de778494-9abd-49cf-a14b-c37b55316980",
    "regionName" : "header",
    "type" : "region"
  }, {
    "components" : [ {
      "componentAttributes" : {
        "pageSize" : 25
      },
      "componentName" : "forceCommunity:filesList",
      "id" : "080cc86c-5c6e-4f59-b4ec-051a0f80e99d",
      "renderPriority" : "NEUTRAL",
      "renditionMap" : { },
      "type" : "component"
    } ],
    "id" : "863a1954-f958-4190-825c-6a3a1f3e0604",
    "regionName" : "content",
    "type" : "region"
  }, {
    "id" : "70bd1e0c-88b5-46b1-b904-3ddd443e2478",
    "regionName" : "footer",
    "type" : "region"
  } ],
  "themeLayoutType" : "Inner",
  "type" : "view",
  "viewType" : "list-069"
}