{
  "appPageId" : "803b347d-d35a-43ff-a832-6ce9e16627e5",
  "componentName" : "siteforce:sldsOneColLayout",
  "id" : "0ec4630e-5310-4f86-af0b-68631c2455f3",
  "label" : "File Related List",
  "regions" : [ {
    "id" : "71348234-2353-4762-b5ea-80b20b8f6dd6",
    "regionName" : "header",
    "type" : "region"
  }, {
    "components" : [ {
      "componentAttributes" : {
        "customTitle" : "",
        "parentRecordId" : "{!recordId}",
        "relatedListName" : "{!relationshipApiName}",
        "showBreadCrumbs" : true,
        "showCustomTitle" : false,
        "showManualRefreshButton" : true,
        "showRowNumbers" : true
      },
      "componentName" : "forceCommunity:relatedList",
      "id" : "e1b18d1d-709e-453b-824a-d7498fe5017d",
      "renderPriority" : "NEUTRAL",
      "renditionMap" : { },
      "type" : "component"
    } ],
    "id" : "b9eccc7b-3f21-4ae9-af0d-f40ee498a15b",
    "regionName" : "content",
    "type" : "region"
  }, {
    "id" : "81726f1a-7425-4997-83ae-e017422a571b",
    "regionName" : "footer",
    "type" : "region"
  } ],
  "themeLayoutType" : "Inner",
  "type" : "view",
  "viewType" : "relatedlist-069"
}