{
  "appPageId" : "803b347d-d35a-43ff-a832-6ce9e16627e5",
  "componentName" : "siteforce:sldsOneColLayout",
  "id" : "a5c6def3-103a-4806-b794-b22547c0f1f0",
  "label" : "What We do",
  "regions" : [ {
    "components" : [ {
      "componentAttributes" : {
        "config" : "{\"contentItemUrlNameId\":\"what-we-do-page-subheading-20Y0w0000004CK1EAM\",\"schemaVersion\":\"V2.0\",\"layoutDefinition\":{\"componentName\":\"forceCommunity:tileLayout\",\"attributes\":{\"showTitle\":true,\"showFeaturedMedia\":false,\"showExcerpt\":true,\"showFlag\":true,\"showEyebrow\":true,\"showMetadata1\":true,\"showMetadata2\":true,\"showDateTime\":true,\"title\":\"{!CurrentItem.title}\",\"subTitle\":\"{!CurrentItem.body}\",\"imageUrl\":\"\",\"imageAltText\":\"\",\"videoUrl\":\"\",\"flagText\":\"\",\"eyebrowText\":\"\",\"metadata1Text\":\"\",\"metadata2Text\":\"\",\"datetime\":\"\",\"textAlignment\":\"center\",\"contentBackgroundColor\":\"#ffffff\",\"componentPadding\":\"none\",\"contentOffset\":\"0\",\"contentOffsetPadding\":\"none\",\"contentOffsetBackgroundColor\":\"#ffffff\",\"contentWidth\":\"96\",\"contentPosition\":\"center\",\"borderColor\":\"\",\"componentBorderStyles\":\"{\\\"borderStyle\\\":\\\"none\\\"}\",\"useAspectRatio\":false,\"mediaAspectRatio\":\"16:9\",\"mediaHeight\":450,\"backgroundSize\":\"cover\",\"backgroundPosition\":\"center center\",\"imageAlignment\":\"top\",\"imageBorderColor\":\"#ffffff\",\"imageBorderStyles\":\"\",\"flagBackgroundColor\":\"#ff0000\",\"flagTextColor\":\"#ffffff\",\"flagConstraints\":\"media\",\"flagAlignment\":\"top left\",\"flagRotation\":0,\"flagSpacing\":\"medium\",\"flagBorderColor\":\"#ffffff\",\"flagBorderStyles\":\"{\\\"borderTopLeftRadius\\\":{\\\"value\\\":\\\"0\\\"},\\\"borderTopRightRadius\\\":{\\\"value\\\":\\\"0\\\"},\\\"borderBottomRightRadius\\\":{\\\"value\\\":\\\"0\\\"},\\\"borderBottomLeftRadius\\\":{\\\"value\\\":\\\"0\\\"}}\",\"flagTextDecoration\":\"\",\"titleHeadingTag\":\"p\",\"titleTextColor\":\"\",\"titleFontSize\":\"large\",\"titleTextDecoration\":\"\",\"showTitleHighlight\":false,\"titleHighlightColor\":\"\",\"subTitleTextColor\":\"\",\"subTitleFontSize\":\"regular\",\"eyebrowTextColor\":\"\",\"eyebrowFontSize\":\"regular\",\"eyebrowTextDecoration\":\"\",\"showEyebrowHighlight\":false,\"eyebrowHighlightColor\":\"\",\"metadataTextColor\":\"\",\"metadataFontSize\":\"regular\",\"metadataTextDecoration\":\"\",\"showMetadata1Highlight\":false,\"metadata1HighlightColor\":\"\",\"showMetadata2Highlight\":false,\"metadata2HighlightColor\":\"\",\"defaultLinksOverrides\":\"{}\",\"additionalLinks\":\"{}\",\"dateFormat\":\"none\",\"displayDayOfWeek\":false,\"timeFormat\":\"none\",\"timeZoneOptions\":\"none\",\"timeZoneDisplay\":\"short\",\"datetimeTextColor\":\"\",\"datetimeFontSize\":\"regular\",\"datetimeTextDecoration\":\"\",\"componentHoverEffect\":\"none\"}}}"
      },
      "componentName" : "forceCommunity:managedContent",
      "id" : "8caaa6a4-a8bc-4316-8589-77d0e2c7c837",
      "renderPriority" : "NEUTRAL",
      "renditionMap" : { },
      "type" : "component"
    }, {
      "componentAttributes" : {
        "config" : "{\"dataProviderDefinition\":{\"componentName\":\"forceCommunity:managedContentCollectionDataProvider\",\"attributes\":{\"dataProviderType\":\"NamedCollection\",\"dataProviderInfo\":{\"apiName\":\"What_We_Do\"}}},\"schemaVersion\":\"V2.0\",\"collectionLayoutDefinition\":{\"componentName\":\"forceCommunity:dynamicCollectionCarousel\",\"attributes\":{\"limitItems\":5,\"showProgressIndicator\":true,\"contentIndicatorSpacing\":\"none\",\"showProgressArrows\":true,\"transitionType\":\"slide\",\"transitionSpeed\":600}},\"itemLayoutDefinition\":{\"componentName\":\"forceCommunity:flexTileLayout\",\"attributes\":{\"showTitle\":true,\"showFeaturedMedia\":false,\"showExcerpt\":true,\"showFlag\":true,\"showEyebrow\":true,\"showMetadata1\":true,\"showMetadata2\":true,\"showDateTime\":true,\"title\":\"{!CurrentItem.title}\",\"subTitle\":\"{!CurrentItem.body}\",\"imageUrl\":\"\",\"imageAltText\":\"\",\"videoUrl\":\"\",\"flagText\":\"\",\"eyebrowText\":\"\",\"metadata1Text\":\"\",\"metadata2Text\":\"\",\"datetime\":\"\",\"textAlignment\":\"left\",\"contentBackgroundColor\":\"#ffffff\",\"componentPadding\":\"none\",\"contentOffset\":\"0\",\"contentOffsetPadding\":\"medium\",\"contentOffsetBackgroundColor\":\"#ffffff\",\"contentWidth\":\"100\",\"contentPosition\":\"center\",\"borderColor\":\"\",\"componentBorderStyles\":\"{\\\"borderStyle\\\":\\\"none\\\"}\",\"useAspectRatio\":false,\"mediaAspectRatio\":\"16:9\",\"mediaHeight\":450,\"backgroundSize\":\"cover\",\"backgroundPosition\":\"center center\",\"imageAlignment\":\"top\",\"imageBorderColor\":\"#ffffff\",\"imageBorderStyles\":\"\",\"flagBackgroundColor\":\"#ff0000\",\"flagTextColor\":\"#ffffff\",\"flagConstraints\":\"media\",\"flagAlignment\":\"top left\",\"flagRotation\":0,\"flagSpacing\":\"medium\",\"flagBorderColor\":\"#ffffff\",\"flagBorderStyles\":\"{\\\"borderTopLeftRadius\\\":{\\\"value\\\":\\\"0\\\"},\\\"borderTopRightRadius\\\":{\\\"value\\\":\\\"0\\\"},\\\"borderBottomRightRadius\\\":{\\\"value\\\":\\\"0\\\"},\\\"borderBottomLeftRadius\\\":{\\\"value\\\":\\\"0\\\"}}\",\"flagTextDecoration\":\"\",\"titleHeadingTag\":\"p\",\"titleTextColor\":\"\",\"titleFontSize\":\"large\",\"titleTextDecoration\":\"\",\"showTitleHighlight\":false,\"titleHighlightColor\":\"\",\"subTitleTextColor\":\"\",\"subTitleFontSize\":\"regular\",\"eyebrowTextColor\":\"\",\"eyebrowFontSize\":\"regular\",\"eyebrowTextDecoration\":\"\",\"showEyebrowHighlight\":false,\"eyebrowHighlightColor\":\"\",\"metadataTextColor\":\"\",\"metadataFontSize\":\"regular\",\"metadataTextDecoration\":\"\",\"showMetadata1Highlight\":false,\"metadata1HighlightColor\":\"\",\"showMetadata2Highlight\":false,\"metadata2HighlightColor\":\"\",\"defaultLinksOverrides\":\"{}\",\"additionalLinks\":\"{}\",\"dateFormat\":\"none\",\"displayDayOfWeek\":false,\"timeFormat\":\"none\",\"timeZoneOptions\":\"none\",\"timeZoneDisplay\":\"short\",\"datetimeTextColor\":\"\",\"datetimeFontSize\":\"regular\",\"datetimeTextDecoration\":\"\",\"componentHoverEffect\":\"none\"}}}"
      },
      "componentName" : "forceCommunity:dynamicCollection",
      "id" : "008dfb95-2e6e-4e7f-8b93-53ab0c67ff56",
      "renderPriority" : "NEUTRAL",
      "renditionMap" : { },
      "type" : "component"
    } ],
    "id" : "bbea5e10-265d-48dc-9824-c29e06adf648",
    "regionName" : "header",
    "type" : "region"
  }, {
    "id" : "effd4639-70cb-4112-a44d-0bee8f022d8b",
    "regionName" : "content",
    "type" : "region"
  }, {
    "id" : "25974e37-eab0-4462-b78c-471969b12243",
    "regionName" : "sidebar",
    "type" : "region"
  }, {
    "id" : "9c8523c5-14b5-47c2-81e8-4e77b58f09f9",
    "regionName" : "sidebarAlt",
    "type" : "region"
  }, {
    "id" : "ae9e3b45-6892-4f3f-ada4-a5737ac8fbb6",
    "regionName" : "footer",
    "type" : "region"
  }, {
    "components" : [ {
      "componentAttributes" : {
        "description" : "",
        "metaTags" : "",
        "title" : "What We do"
      },
      "componentName" : "forceCommunity:seoAssistant",
      "id" : "a91470d3-b8fd-45f5-9ede-fdfee6bb8726",
      "renditionMap" : { },
      "type" : "component"
    } ],
    "id" : "7f9aff24-eee7-4c41-a01c-d98b83cbb9d3",
    "regionName" : "sfdcHiddenRegion",
    "type" : "region"
  } ],
  "themeLayoutType" : "obqPncACAdSoqs8utAsjKzAFCZVWSg",
  "type" : "view",
  "viewType" : "custom-what-we-do"
}