{
  "activeBrandingSetId" : "05fa3006-0ada-45ac-8a8e-2470c0a0d1b9",
  "customCSS" : "",
  "developerName" : "helpCenter",
  "id" : "4edb3d5e-0038-4d91-89c6-46f5c51e8638",
  "label" : "Help Center",
  "layouts" : {
    "Home" : "60668be5-2f6d-4c94-9816-7189c7aa318b",
    "Inner" : "d96012d1-5b7f-48b1-957a-0f0b3cf74c3f",
    "Login" : "5b48d317-e51c-4bb1-899e-09aa7e1764ec"
  },
  "type" : "theme",
  "views" : [ {
    "componentAttributes" : { },
    "componentName" : "salesforceIdentity:loginBody2",
    "id" : "5b48d317-e51c-4bb1-899e-09aa7e1764ec",
    "label" : "Login",
    "regions" : [ {
      "id" : "7a79d00e-02eb-4669-aa78-017901929b7e",
      "regionName" : "header",
      "type" : "region"
    }, {
      "id" : "340269ab-c11e-4db0-ad23-6ca51dc9e0c6",
      "regionName" : "content",
      "type" : "region"
    }, {
      "id" : "86c1d093-1ffb-4fc8-b2fb-f77a97f3503d",
      "regionName" : "footer",
      "type" : "region"
    } ],
    "type" : "view"
  }, {
    "componentAttributes" : {
      "fixedPageWidth" : 1280,
      "headerBgColor" : "rgba(255, 255, 255, 0.8)",
      "isHeaderPinned" : false,
      "isHeroUnderHeader" : false,
      "isPageWidthFixed" : true,
      "showHeader" : true,
      "showHero" : false
    },
    "componentName" : "siteforce:themeLayoutStarter",
    "id" : "d96012d1-5b7f-48b1-957a-0f0b3cf74c3f",
    "label" : "Default",
    "regions" : [ {
      "components" : [ {
        "componentAttributes" : {
          "background" : "background: #240E0F",
          "backgroundOverlayColor" : "rgba(0, 0, 0, 0.3)",
          "borderBottomColor" : "#240e0f",
          "centerAlignLogo" : false,
          "collapseNavMenu" : false,
          "containHeader" : true,
          "containHeaderWidth" : 1280,
          "dropdownBackgroundColor" : "#FFFFFF",
          "dropdownBackgroundHoverColor" : "#F3F2F2",
          "dropdownBorderColor" : "#F0F0F0",
          "dropdownTextColor" : "rgba(0, 0, 0, 0.8)",
          "dropdownTextHoverColor" : "rgba(0, 0, 0, 0.8)",
          "headerHeight" : 16,
          "linkActiveBorderColor" : "rgba(0, 0, 0, 0.7)",
          "linkColor" : "rgba(0, 0, 0, 0.8)",
          "linkHoverColor" : "rgba(0, 0, 0, 0.7)",
          "linkTextShadowColor" : "rgba(255, 255, 255, 0)",
          "logoWidth" : 150,
          "searchStyle" : "expanded",
          "showAppLauncher" : false,
          "showNavMenuOnLeft" : false,
          "showNotifications" : false,
          "showProfileMenu" : false,
          "showSearch" : true
        },
        "componentName" : "forceCommunity:themeHeaderCompact",
        "id" : "0f04cc14-f24c-4a25-bf3c-eb1637dde3e8",
        "regions" : [ {
          "components" : [ {
            "componentAttributes" : {
              "backgroundColor" : "#FFFFFF",
              "borderColor" : "rgba(0, 0, 0, 0.8)",
              "borderRadius" : 20,
              "borderStyle" : "outline",
              "buttonColor" : "rgb(219, 129, 106)",
              "buttonHoverColor" : "rgb(181, 104, 84)",
              "crossObjectTypeaheadApiNames" : "",
              "iconColor" : "rgb(255, 255, 255)",
              "placeholderText" : "Search...",
              "placeholderTextColor" : "rgba(0, 0, 0, 0.6)",
              "showSearchButton" : true,
              "textColor" : "rgba(0, 0, 0, 0.8)",
              "typeaheadResultMax" : 5,
              "useTypeahead" : true
            },
            "componentName" : "forceCommunity:themeSearch",
            "id" : "3dccab74-a8e8-4a04-a272-8c84d43e63f4",
            "renditionMap" : { },
            "type" : "component"
          } ],
          "id" : "2a807897-c9c6-4dc3-8b58-030cc78186b8",
          "regionName" : "search",
          "type" : "region"
        }, {
          "components" : [ {
            "componentAttributes" : {
              "navAlignment" : "left",
              "navItemThreshold" : 4,
              "navigationMenuEditorRefresh" : ""
            },
            "componentName" : "forceCommunity:themeNav",
            "id" : "b2026dda-f018-4155-9aff-1e96efeb8535",
            "renditionMap" : { },
            "type" : "component"
          } ],
          "id" : "adeccc46-3b28-4757-b704-08bc18dcb30d",
          "regionName" : "nav",
          "type" : "region"
        } ],
        "renditionMap" : { },
        "type" : "component"
      } ],
      "id" : "71953bd7-53d0-49e0-b97c-ff63b2a34e2f",
      "regionName" : "themeHeader",
      "type" : "region"
    }, {
      "components" : [ {
        "componentAttributes" : {
          "bgImage" : "background: #FFFFFF url(/sfsites/assets/themes/helpCenter-background.jpg) center /cover",
          "bgOverlayColor" : "rgba(0, 0, 0, 0.46)",
          "captionText" : "Get Excited",
          "captionTextColor" : "rgba(255, 255, 255, 1)",
          "captionTextShadowColor" : "rgba(0, 0, 0, 0)",
          "contentAlignment" : "center",
          "contentWidth" : 65,
          "ctaBtnOneBgColor" : "rgba(0, 0, 0, 1)",
          "ctaBtnOneBgHoverColor" : "rgba(0, 0, 255, 1)",
          "ctaBtnOneBorderColor" : "rgba(0, 0, 0, 1)",
          "ctaBtnOneOpenNewTab" : false,
          "ctaBtnOneText" : "Let's go!",
          "ctaBtnOneTextColor" : "rgba(255, 255, 255, 1)",
          "ctaBtnOneTextHoverColor" : "rgba(255, 255, 255, 1)",
          "ctaBtnOneUrl" : "",
          "ctaBtnRadius" : 0,
          "ctaBtnTwoBgColor" : "rgba(255, 255, 255, 1)",
          "ctaBtnTwoBgHoverColor" : "rgba(0, 0, 255, 1)",
          "ctaBtnTwoBorderColor" : "rgba(0, 0, 0, 1)",
          "ctaBtnTwoOpenNewTab" : false,
          "ctaBtnTwoText" : "Help",
          "ctaBtnTwoTextColor" : "rgba(0, 0, 0, 1)",
          "ctaBtnTwoTextHoverColor" : "rgba(255, 255, 255, 1)",
          "ctaBtnTwoUrl" : "",
          "ctaShowBtnOne" : true,
          "ctaShowBtnTwo" : true,
          "fixedHeroWidth" : true,
          "heroHeight" : 162,
          "heroWidth" : 1280,
          "showCaption" : false,
          "showSubtitle" : true,
          "showTitle" : true,
          "subtitleText" : "Are you ready?",
          "subtitleTextColor" : "rgba(255, 255, 255, 1)",
          "subtitleTextShadowColor" : "rgba(0, 0, 0, 0)",
          "titleText" : "What can we help you with?",
          "titleTextColor" : "rgb(255, 255, 255)",
          "titleTextShadowColor" : "rgba(0, 0, 0, 0.5)",
          "type" : "showSearch"
        },
        "componentName" : "forceCommunity:themeHeroStarter",
        "id" : "79b563da-0566-4f10-aea6-120bb7a64996",
        "regions" : [ {
          "components" : [ {
            "componentAttributes" : {
              "backgroundColor" : "#FFFFFF",
              "borderColor" : "rgba(0, 0, 0, 0)",
              "borderRadius" : 25,
              "borderStyle" : "outline",
              "buttonColor" : "#db816a",
              "buttonHoverColor" : "#b56854",
              "crossObjectTypeaheadApiNames" : "",
              "iconColor" : "#FFFFFF",
              "placeholderText" : "Search the help center...",
              "placeholderTextColor" : "rgba(0, 0, 0, 0.6)",
              "publicDropdownBackgroundColor" : "#FFFFFF",
              "publicDropdownBackgroundHoverColor" : "#F3F2F2",
              "publicDropdownBorderColor" : "#F0F0F0",
              "publicDropdownTextColor" : "rgba(0, 0, 0, 0.8)",
              "publicDropdownTextHoverColor" : "rgba(0, 0, 0, 0.8)",
              "showSearchButton" : true,
              "textColor" : "rgba(0, 0, 0, 0.8)",
              "typeaheadResultMax" : 6,
              "useTypeahead" : true
            },
            "componentName" : "forceCommunity:themeSearchHero",
            "id" : "2e281f59-1354-4c39-a0ae-2ca7b6c74123",
            "renditionMap" : { },
            "type" : "component"
          } ],
          "id" : "5a9a43f3-9057-4d75-a472-61a91a8b6323",
          "regionName" : "search",
          "type" : "region"
        } ],
        "renditionMap" : { },
        "type" : "component"
      } ],
      "id" : "b8f027f4-d1fa-4815-9a26-e45f375ac7b8",
      "regionName" : "themeHero",
      "type" : "region"
    }, {
      "components" : [ {
        "componentAttributes" : { },
        "componentName" : "forceCommunity:themeLogoSalesforce",
        "id" : "15d4d44e-60c6-440a-817d-59acb6c355b1",
        "renditionMap" : { },
        "type" : "component"
      } ],
      "id" : "c632f9c5-17fe-410a-90a5-0a68ae79754f",
      "regionName" : "themeFooter",
      "type" : "region"
    } ],
    "type" : "view"
  }, {
    "componentAttributes" : {
      "fixedPageWidth" : 1280,
      "headerBgColor" : "rgba(255, 255, 255, 0.8)",
      "isHeaderPinned" : false,
      "isHeroUnderHeader" : true,
      "isPageWidthFixed" : true,
      "showHeader" : true,
      "showHero" : true
    },
    "componentName" : "siteforce:themeLayoutStarter",
    "id" : "60668be5-2f6d-4c94-9816-7189c7aa318b",
    "label" : "Home",
    "regions" : [ {
      "components" : [ {
        "componentAttributes" : {
          "background" : "background: rgba(0,0,0,0)",
          "backgroundOverlayColor" : "rgba(0, 0, 0, 0.3)",
          "borderBottomColor" : "rgba(0, 0, 0, 0)",
          "containHeader" : true,
          "containHeaderWidth" : 1280,
          "headerHeight" : 16,
          "languageSelectorLabelColor" : "#ffffff",
          "linkColor" : "#ffffff",
          "logoWidth" : 150,
          "showLanguageSelector" : false
        },
        "componentName" : "forceCommunity:themeHeaderHelpCenter",
        "id" : "635bc6e1-50ba-4939-aa1c-78ea1e6a2673",
        "regions" : [ {
          "components" : [ {
            "componentAttributes" : {
              "label" : "Preferred Language",
              "pickerAlignment" : "center"
            },
            "componentName" : "forceCommunity:languageSelector43",
            "id" : "64203fe7-c21a-4097-9605-873529fc000d",
            "renditionMap" : { },
            "type" : "component"
          } ],
          "id" : "96d5f3a7-3490-483c-ac6e-32863807d135",
          "regionName" : "languageSelector",
          "type" : "region"
        } ],
        "renditionMap" : { },
        "type" : "component"
      } ],
      "id" : "f2c2f4c5-2799-4556-8d72-3c7eba07e513",
      "regionName" : "themeHeader",
      "type" : "region"
    }, {
      "components" : [ {
        "componentAttributes" : {
          "bgImage" : "background: #FFFFFF url(/sfsites/assets/themes/helpCenter-background.jpg) center /cover",
          "bgOverlayColor" : "rgba(0, 0, 0, 0.46)",
          "captionText" : "Get Excited",
          "captionTextColor" : "rgba(255, 255, 255, 1)",
          "captionTextShadowColor" : "rgba(0, 0, 0, 0)",
          "contentAlignment" : "center",
          "contentWidth" : 65,
          "ctaBtnOneBgColor" : "rgba(0, 0, 0, 1)",
          "ctaBtnOneBgHoverColor" : "rgba(0, 0, 255, 1)",
          "ctaBtnOneBorderColor" : "rgba(0, 0, 0, 1)",
          "ctaBtnOneOpenNewTab" : false,
          "ctaBtnOneText" : "Let's go!",
          "ctaBtnOneTextColor" : "rgba(255, 255, 255, 1)",
          "ctaBtnOneTextHoverColor" : "rgba(255, 255, 255, 1)",
          "ctaBtnOneUrl" : "",
          "ctaBtnRadius" : 0,
          "ctaBtnTwoBgColor" : "rgba(255, 255, 255, 1)",
          "ctaBtnTwoBgHoverColor" : "rgba(0, 0, 255, 1)",
          "ctaBtnTwoBorderColor" : "rgba(0, 0, 0, 1)",
          "ctaBtnTwoOpenNewTab" : false,
          "ctaBtnTwoText" : "Help",
          "ctaBtnTwoTextColor" : "rgba(0, 0, 0, 1)",
          "ctaBtnTwoTextHoverColor" : "rgba(255, 255, 255, 1)",
          "ctaBtnTwoUrl" : "",
          "ctaShowBtnOne" : true,
          "ctaShowBtnTwo" : true,
          "fixedHeroWidth" : true,
          "heroHeight" : 162,
          "heroWidth" : 1280,
          "showCaption" : false,
          "showSubtitle" : true,
          "showTitle" : true,
          "subtitleText" : "Are you ready?",
          "subtitleTextColor" : "rgba(255, 255, 255, 1)",
          "subtitleTextShadowColor" : "rgba(0, 0, 0, 0)",
          "titleText" : "What can we help you with?",
          "titleTextColor" : "rgb(255, 255, 255)",
          "titleTextShadowColor" : "rgba(0, 0, 0, 0.5)",
          "type" : "showSearch"
        },
        "componentName" : "forceCommunity:themeHeroStarter",
        "id" : "438f99a7-5740-4498-94f6-459772592151",
        "regions" : [ {
          "components" : [ {
            "componentAttributes" : {
              "backgroundColor" : "#FFFFFF",
              "borderColor" : "rgba(0, 0, 0, 0)",
              "borderRadius" : 25,
              "borderStyle" : "outline",
              "buttonColor" : "#db816a",
              "buttonHoverColor" : "#b56854",
              "crossObjectTypeaheadApiNames" : "",
              "iconColor" : "#FFFFFF",
              "placeholderText" : "Search the help center...",
              "placeholderTextColor" : "rgba(0, 0, 0, 0.6)",
              "publicDropdownBackgroundColor" : "#FFFFFF",
              "publicDropdownBackgroundHoverColor" : "#F3F2F2",
              "publicDropdownBorderColor" : "#F0F0F0",
              "publicDropdownTextColor" : "rgba(0, 0, 0, 0.8)",
              "publicDropdownTextHoverColor" : "rgba(0, 0, 0, 0.8)",
              "showSearchButton" : true,
              "textColor" : "rgba(0, 0, 0, 0.8)",
              "typeaheadResultMax" : 6,
              "useTypeahead" : true
            },
            "componentName" : "forceCommunity:themeSearchHero",
            "id" : "03e7fafc-374d-49d1-bb36-97d5263b851d",
            "renditionMap" : { },
            "type" : "component"
          } ],
          "id" : "3ad6ee89-05bc-4e9b-acfe-3e90baefc456",
          "regionName" : "search",
          "type" : "region"
        } ],
        "renditionMap" : { },
        "type" : "component"
      } ],
      "id" : "0437a383-f8d3-4686-8423-8d1fb9495e3b",
      "regionName" : "themeHero",
      "type" : "region"
    }, {
      "components" : [ {
        "componentAttributes" : { },
        "componentName" : "forceCommunity:themeLogoSalesforce",
        "id" : "2ea5cce3-9a4d-42b4-9a59-ddd253f356a6",
        "renditionMap" : { },
        "type" : "component"
      } ],
      "id" : "82314842-5dec-4298-a0af-576cab18cfbe",
      "regionName" : "themeFooter",
      "type" : "region"
    } ],
    "type" : "view"
  } ]
}