{
  "activeViewId" : "1ff80563-9da7-4712-960f-50fecd7100ca",
  "appPageId" : "803b347d-d35a-43ff-a832-6ce9e16627e5",
  "id" : "6445de5f-5612-4303-9e4a-bdfda9e1ddf8",
  "label" : "File Detail",
  "routeType" : "detail-069",
  "type" : "route",
  "urlPrefix" : "contentdocument"
}