{
  "activeViewId" : "0ec4630e-5310-4f86-af0b-68631c2455f3",
  "appPageId" : "803b347d-d35a-43ff-a832-6ce9e16627e5",
  "id" : "ec2e571f-3842-433f-ae81-ef4b58f9972a",
  "label" : "File Related List",
  "routeType" : "relatedlist-069",
  "type" : "route",
  "urlPrefix" : "contentdocument"
}