{
  "activeViewId" : "00d9611f-9fd8-45c1-a5dd-a004fedd0924",
  "appPageId" : "803b347d-d35a-43ff-a832-6ce9e16627e5",
  "id" : "ef22c753-d9de-4cf8-81fb-3cda462f7e97",
  "label" : "News Detail",
  "routeType" : "managed-content-news",
  "type" : "route",
  "urlPrefix" : "news"
}