{
  "activeViewId" : "a5c6def3-103a-4806-b794-b22547c0f1f0",
  "appPageId" : "803b347d-d35a-43ff-a832-6ce9e16627e5",
  "id" : "961c3482-2ff8-45f4-8ce6-aea89b5cfbf2",
  "label" : "What We Do",
  "routeType" : "custom-what-we-do",
  "type" : "route",
  "urlPrefix" : "what-we-do"
}