{
  "definitionName" : "helpCenter:branding-helpCenter",
  "id" : "05fa3006-0ada-45ac-8a8e-2470c0a0d1b9",
  "label" : "Help Center",
  "type" : "brandingSet",
  "values" : {
    "ActionColor" : "#684c43",
    "BorderColor" : "#efefef",
    "CardBackgroundColor" : "rgba(255, 255, 255, 0)",
    "CompanyLogo" : "/sfsites/assets/themes/capricorn-logo-hc.png",
    "DetailTextColor" : "rgba(0, 0, 0, 0.6)",
    "ErrorFontColor" : "#ff9e9e",
    "HeaderFonts" : "Montserrat",
    "LinkColor" : "#415aa8",
    "LoginBackgroundColor" : "#F4F4F4",
    "LoginBackgroundImage" : "../../../../sfsites/picasso/core/external/salesforceIdentity/images/background.jpg?v=1",
    "OverlayTextColor" : "#FFFFFF",
    "PageBackgroundColor" : "#FFFFFF",
    "PrimaryFont" : "Lato",
    "TextColor" : "#4f4f4f",
    "TextTransformStyle" : "none",
    "_ActionColorDarker" : "#082695",
    "_ActionColorTrans" : "rgba(10, 50, 198, 0.9)",
    "_HoverColor" : "rgba(10, 50, 198, 0.05)",
    "_LinkColorDarker" : "#000000",
    "_OverlayTextColorShadow" : "#000000",
    "_brandNavigationBarBackgroundColor" : "rgba(128,128,128,.75)",
    "_brandNavigationItemBackgroundColorHover" : "rgba(0,0,0,.2)",
    "_brandNavigationItemDividerColor" : "rgba(255, 255, 255, 0.2)",
    "brandNavigationBackgroundColor" : "rgb(128,128,128)",
    "brandNavigationBarBackgroundColor" : "rgba(128,128,128,.75)",
    "brandNavigationColorText" : "#FFFFFF"
  }
}